{
  "type": "index_parallel",
  "spec": {
    "ioConfig" : {
      "type" : "index_parallel",
      "inputSource" : {
        "type" : "local",
        "baseDir": "gitlab/logs",
        "filter" : "sidekiq_current"
      },
      "inputFormat": {
        "type": "json"
      }
    },
    "tuningConfig": {
      "type": "index_parallel",
      "partitionsSpec": {
        "type": "dynamic"
      }
    },
    "dataSchema": {
      "dataSource": "sidekiq",
      "timestampSpec": {
        "column": "time",
        "format": "iso"
      },
      "dimensionsSpec": {
        "dimensions": [
          "args",
          "class",
          "completed_at",
          "correlation_id",
          {
            "type": "double",
            "name": "cpu_s"
          },
          "created_at",
          {
            "type": "long",
            "name": "db_cached_count"
          },
          {
            "type": "long",
            "name": "db_count"
          },
          {
            "type": "double",
            "name": "db_duration_s"
          },
          {
            "type": "long",
            "name": "db_write_count"
          },
          {
            "type": "double",
            "name": "duration_s"
          },
          "enqueued_at",
          "error_backtrace",
          "error_class",
          "error_message",
          "errors",
          {
            "type": "long",
            "name": "extra.elastic_index_initial_bulk_cron_worker.records_count"
          },
          "jid",
          {
            "type": "long",
            "name": "job_size_bytes"
          },
          "job_status",
          {
            "type": "long",
            "name": "mem_bytes"
          },
          {
            "type": "long",
            "name": "mem_mallocs"
          },
          {
            "type": "long",
            "name": "mem_objects"
          },
          "message",
          "meta.caller_id",
          {
            "type": "long",
            "name": "pid"
          },
          {
            "type": "long",
            "name": "project_id"
          },
          "project_path",
          "queue",
          "queue_namespace",
          {
            "type": "long",
            "name": "redis_cache_calls"
          },
          {
            "type": "double",
            "name": "redis_cache_duration_s"
          },
          {
            "type": "long",
            "name": "redis_cache_read_bytes"
          },
          {
            "type": "long",
            "name": "redis_cache_write_bytes"
          },
          {
            "type": "long",
            "name": "redis_calls"
          },
          {
            "type": "double",
            "name": "redis_duration_s"
          },
          {
            "type": "long",
            "name": "redis_queues_calls"
          },
          {
            "type": "double",
            "name": "redis_queues_duration_s"
          },
          {
            "type": "long",
            "name": "redis_queues_read_bytes"
          },
          {
            "type": "long",
            "name": "redis_queues_write_bytes"
          },
          {
            "type": "long",
            "name": "redis_read_bytes"
          },
          {
            "type": "long",
            "name": "redis_shared_state_calls"
          },
          {
            "type": "double",
            "name": "redis_shared_state_duration_s"
          },
          {
            "type": "long",
            "name": "redis_shared_state_read_bytes"
          },
          {
            "type": "long",
            "name": "redis_shared_state_write_bytes"
          },
          {
            "type": "long",
            "name": "redis_write_bytes"
          },
          {
            "type": "long",
            "name": "retry"
          },
          {
            "type": "double",
            "name": "scheduling_latency_s"
          },
          "severity",
          {
            "type": "long",
            "name": "version"
          }
        ]
      },
      "granularitySpec": {
        "queryGranularity": "none",
        "rollup": false,
        "segmentGranularity": "hour"
      }
    }
  }
}
